%YAML 1.1
%TAG !u! tag:unity3d.com,2011:
--- !u!114 &11400000
MonoBehaviour:
  m_ObjectHideFlags: 0
  m_CorrespondingSourceObject: {fileID: 0}
  m_PrefabInstance: {fileID: 0}
  m_PrefabAsset: {fileID: 0}
  m_GameObject: {fileID: 0}
  m_Enabled: 1
  m_EditorHideFlags: 0
  m_Script: {fileID: 11500000, guid: 848409ee8ba454f42a5ddff137688a27, type: 3}
  m_Name: ReferenceImageLibrary
  m_EditorClassIdentifier: 
  m_GuidLow: 5340125997012757279
  m_GuidHigh: 3340414148350940064
  m_DataStore:
    m_Storage: []
  m_Images:
  - m_SerializedGuid:
      m_GuidLow: 4615818568738555794
      m_GuidHigh: 7385012376133475994
    m_SerializedTextureGuid:
      m_GuidLow: 9269672921292759454
      m_GuidHigh: 16215349426918744490
    m_Size: {x: 1, y: 1}
    m_SpecifySize: 1
    m_Name: Reference
    m_Texture: {fileID: 0}
