# ProBuilder 5.1.1
# https://unity3d.com/unity/features/worldbuilding/probuilder
# 2023/11/17 下午 12:58:20

mtllib ./Sprite.mtl
o Sprite

g Sprite
v 2 0 -4
v 2 0 0
v 0 0 -4
v 0 0 0

vt -2 -4
vt -2 0
vt 0 -4
vt 0 0

vn 0 1 0

usemtl ProBuilderDefault
f 3/3/1 4/4/1 2/2/1 1/1/1

